{"SubstationStatus":{"SubstationStatus":{"SubMeterNums":31,"SubstationInfo":{"fSubid":10100001,"fSubname":"安科瑞新大楼变电所","fVoltagestep":10.00,"fInstalledcapacity":500.00,
"fApplycapacity":300.00,"fTransformernum":1,"fWaterin":false,"fSmog":false}},"RunningStatus":{"FPFQ":{"fSubid":10100001,"fCollecttime":"2017-06-19 11:15:00","fP":100.95,"fQ":69.74},
"FTempFHumidity":{"fSubid":10100001,"fCollecttime":"2017-06-19 11:15:00","fTemp":25.40,"fHumidity":78.50}},"DayReport":{"SwitchingTimes":5,"OverLimitTimes":0,"DisconnectNumber":0}},
"EHCAndES":{"EnergyStatus":{"MaxValueTimes":"08:15-08:30","TodayTotalValue":{"fSubid":10100001,"fSumvalue":788.00},
"YesterdayTotalValue":{"fSubid":10100001,"fSumvalue":654.00},"linkRelativeRatio":20.00,"MaxValueInfoOfOneDay":104.0}},"SubstationName":[{"fSubid":10100001,"fSubname":"安科瑞新大楼变电所",
"fVoltagestep":10.00,"fLongitude":121.30700000,"fLatitude":31.35000000,"fAddress":"上海嘉定","fInstalledcapacity":500.00,"fApplycapacity":300.00,"fTransformernum":1,"fWaterin":false,
"fSmog":false,"fDoor":false},{"fSubid":10100002,"fSubname":"江苏安科瑞","fVoltagestep":20.00,"fLongitude":120.21500000,"fLatitude":31.85200000,"fAddress":"深圳",
"fInstalledcapacity":6000.00,"fApplycapacity":666.00,"fTransformernum":2,"fWaterin":false,"fSmog":false,"fDoor":false},{"fSubid":10100003,"fSubname":"安科瑞电气股份有限公司2",
"fVoltagestep":10.00,"fLongitude":50.62000000,"fLatitude":47.22000000,"fAddress":"上海嘉定","fInstalledcapacity":6666.00,"fApplycapacity":4500.00,"fTransformernum":16,
"fWaterin":false,"fSmog":false,"fDoor":false}]}